C:\Revathi\jenkins\Spring_Boot_Junit_Inmemory_Database\src\main\java\com\dhanjyothi\Application.java
C:\Revathi\jenkins\Spring_Boot_Junit_Inmemory_Database\src\main\java\com\dhanjyothi\Person.java
C:\Revathi\jenkins\Spring_Boot_Junit_Inmemory_Database\src\main\java\com\dhanjyothi\PersonService.java
C:\Revathi\jenkins\Spring_Boot_Junit_Inmemory_Database\src\main\java\com\dhanjyothi\PersonDao.java
C:\Revathi\jenkins\Spring_Boot_Junit_Inmemory_Database\src\main\java\com\dhanjyothi\DBConfiguration.java
C:\Revathi\jenkins\Spring_Boot_Junit_Inmemory_Database\src\main\java\com\dhanjyothi\PersonController.java
